{
    "title": "Billetterie du Handball-Club Saint-Jean - Haute-Garonne - Occitanie",
    "js": [
        "lib/js/jquery",
        "lib/js/bootstrap",
        "core/js/utils",
        "core/js/ajax-utils",
        "common/js/view-utils",
        "common/js/form-utils",
        "common/js/shop-controller",
        "common/js/global-controller"
    ],
    "css": [
        "lib/css/animate"
    ],
    "metas": {
        "keywords": "handball, club, association, sport, sport collectif, saint-jean, st jean, occitanie, haute-garonne, toulouse, boutique",
        "description": "Billetterie en ligne du Handball-Club de Saint-Jean, dans le nord-est Toulousain, Haute-Garonne, Occitanie"
    }
}