{
    "title": "Site du Handball-Club Saint-Jean - Haute-Garonne - Occitanie",
    "js": [
        "lib/js/jquery",
        "lib/js/bootstrap",
        "common/js/view-utils",
        "common/js/main-website-controller",
        "common/js/global-controller"
    ],
    "css": [
        "lib/css/animate"
    ],
    "metas": {
        "keywords": "handball, club, association, sport, sport collectif, saint-jean, st jean, occitanie, haute-garonne, toulouse",
        "description": "Site internet du Handball-Club de Saint-Jean, dans le nord-est Toulousain, Haute-Garonne, Occitanie"
    }
}