{
    "title": "Site du Handball-Club Saint-Jean - Administration",
    "js": [
        "lib/js/jquery",
        "lib/js/bootstrap",
        "core/js/utils",
        "core/js/ajax-utils",
        "common/js/view-utils",
        "common/js/form-utils",
        "common/js/connexion-controller",
        "common/js/admin-controller",
        "common/js/clipboard",
        "common/js/global-controller"
    ],
    "css": [
        "lib/css/animate"
    ],
    "metas": {
        "keywords": "",
        "description": ""
    }
}